module github.com/openziti/ziti

go 1.20

require (
	github.com/AppsFlyer/go-sundheit v0.5.0
	github.com/Jeffail/gabs v1.4.0
	github.com/Jeffail/gabs/v2 v2.7.0
	github.com/MakeNowJust/heredoc v1.0.0
	github.com/blang/semver v3.5.1+incompatible
	github.com/cenkalti/backoff/v4 v4.2.1
	github.com/coreos/go-iptables v0.7.0
	github.com/dgryski/dgoogauth v0.0.0-20190221195224-5a805980a5f3
	github.com/dineshappavoo/basex v0.0.0-20170425072625-481a6f6dc663
	github.com/ef-ds/deque v1.0.4
	github.com/emirpasic/gods v1.18.1
	github.com/fatih/color v1.15.0
	github.com/fullsailor/pkcs7 v0.0.0-20190404230743-d7302db945fa
	github.com/go-acme/lego/v4 v4.14.2
	github.com/go-openapi/errors v0.20.4
	github.com/go-openapi/loads v0.21.2
	github.com/go-openapi/runtime v0.26.0
	github.com/go-openapi/spec v0.20.9
	github.com/go-openapi/strfmt v0.21.7
	github.com/go-openapi/swag v0.22.4
	github.com/go-openapi/validate v0.22.1
	github.com/go-resty/resty/v2 v2.10.0
	github.com/golang-jwt/jwt/v5 v5.0.0
	github.com/google/go-cmp v0.6.0
	github.com/google/gopacket v1.1.19
	github.com/google/uuid v1.4.0
	github.com/gorilla/handlers v1.5.1
	github.com/gorilla/mux v1.8.0
	github.com/gorilla/websocket v1.5.0
	github.com/hashicorp/go-hclog v1.5.0
	github.com/hashicorp/golang-lru/v2 v2.0.7
	github.com/hashicorp/raft v1.5.0
	github.com/hashicorp/raft-boltdb v0.0.0-20220329195025-15018e9b97e0
	github.com/jedib0t/go-pretty/v6 v6.4.8
	github.com/jessevdk/go-flags v1.5.0
	github.com/jinzhu/copier v0.4.0
	github.com/kataras/go-events v0.0.3
	github.com/lucsky/cuid v1.2.1
	github.com/mdlayher/netlink v1.7.2
	github.com/michaelquigley/pfxlog v0.6.10
	github.com/miekg/dns v1.1.56
	github.com/mitchellh/mapstructure v1.5.0
	github.com/natefinch/lumberjack v2.0.0+incompatible
	github.com/openziti/agent v1.0.16
	github.com/openziti/channel/v2 v2.0.105
	github.com/openziti/edge-api v0.26.0
	github.com/openziti/foundation/v2 v2.0.33
	github.com/openziti/identity v1.0.66
	github.com/openziti/jwks v1.0.3
	github.com/openziti/metrics v1.2.37
	github.com/openziti/runzmd v1.0.33
	github.com/openziti/sdk-golang v0.20.129
	github.com/openziti/secretstream v0.1.13
	github.com/openziti/storage v0.2.23
	github.com/openziti/transport/v2 v2.0.113
	github.com/openziti/x509-claims v1.0.3
	github.com/openziti/xweb/v2 v2.1.0
	github.com/openziti/ziti-db-explorer v1.1.3
	github.com/orcaman/concurrent-map/v2 v2.0.1
	github.com/pkg/errors v0.9.1
	github.com/rabbitmq/amqp091-go v1.8.1
	github.com/rcrowley/go-metrics v0.0.0-20201227073835-cf1acfcdf475
	github.com/russross/blackfriday v1.6.0
	github.com/shirou/gopsutil/v3 v3.23.9
	github.com/sirupsen/logrus v1.9.3
	github.com/skip2/go-qrcode v0.0.0-20200617195104-da1b6568686e
	github.com/spf13/cobra v1.7.0
	github.com/spf13/pflag v1.0.5
	github.com/spf13/viper v1.17.0
	github.com/stretchr/testify v1.8.4
	github.com/teris-io/shortid v0.0.0-20201117134242-e59966efd125
	github.com/xeipuuv/gojsonschema v1.2.0
	github.com/zitadel/oidc/v2 v2.7.0
	go.etcd.io/bbolt v1.3.8
	golang.org/x/crypto v0.14.0
	golang.org/x/net v0.17.0
	golang.org/x/sync v0.4.0
	golang.org/x/sys v0.13.0
	golang.org/x/text v0.13.0
	google.golang.org/protobuf v1.31.0
	gopkg.in/AlecAivazis/survey.v1 v1.8.7
	gopkg.in/resty.v1 v1.12.0
	gopkg.in/square/go-jose.v2 v2.6.0
	gopkg.in/yaml.v2 v2.4.0
	gopkg.in/yaml.v3 v3.0.1
	rsc.io/goversion v1.2.0
)

require (
	github.com/MichaelMure/go-term-markdown v0.1.4 // indirect
	github.com/MichaelMure/go-term-text v0.3.1 // indirect
	github.com/alecthomas/chroma v0.10.0 // indirect
	github.com/andybalholm/brotli v1.0.6 // indirect
	github.com/antlr4-go/antlr/v4 v4.13.0 // indirect
	github.com/armon/go-metrics v0.4.1 // indirect
	github.com/asaskevich/govalidator v0.0.0-20230301143203-a9d515a09cc2 // indirect
	github.com/biogo/store v0.0.0-20200525035639-8c94ae1e7c9c // indirect
	github.com/boltdb/bolt v1.3.1 // indirect
	github.com/c-bata/go-prompt v0.2.6 // indirect
	github.com/creack/pty v1.1.11 // indirect
	github.com/davecgh/go-spew v1.1.2-0.20180830191138-d8f796af33cc // indirect
	github.com/disintegration/imaging v1.6.2 // indirect
	github.com/dlclark/regexp2 v1.10.0 // indirect
	github.com/docker/go-units v0.5.0 // indirect
	github.com/eliukblau/pixterm/pkg/ansimage v0.0.0-20191210081756-9fb6cf8c2f75 // indirect
	github.com/felixge/httpsnoop v1.0.1 // indirect
	github.com/fsnotify/fsnotify v1.7.0 // indirect
	github.com/go-jose/go-jose/v3 v3.0.0 // indirect
	github.com/go-logr/logr v1.3.0 // indirect
	github.com/go-logr/stdr v1.2.2 // indirect
	github.com/go-ole/go-ole v1.3.0 // indirect
	github.com/go-openapi/analysis v0.21.4 // indirect
	github.com/go-openapi/jsonpointer v0.20.0 // indirect
	github.com/go-openapi/jsonreference v0.20.2 // indirect
	github.com/golang/protobuf v1.5.3 // indirect
	github.com/gomarkdown/markdown v0.0.0-20230922112808-5421fefb8386 // indirect
	github.com/gorilla/schema v1.2.0 // indirect
	github.com/gorilla/securecookie v1.1.1 // indirect
	github.com/hashicorp/go-immutable-radix v1.3.1 // indirect
	github.com/hashicorp/go-msgpack v0.5.5 // indirect
	github.com/hashicorp/golang-lru v0.6.0 // indirect
	github.com/hashicorp/hcl v1.0.0 // indirect
	github.com/inconshreveable/mousetrap v1.1.0 // indirect
	github.com/josharian/intern v1.0.0 // indirect
	github.com/josharian/native v1.1.0 // indirect
	github.com/kballard/go-shellquote v0.0.0-20180428030007-95032a82bc51 // indirect
	github.com/kr/pty v1.1.8 // indirect
	github.com/kyokomi/emoji/v2 v2.2.12 // indirect
	github.com/lucasb-eyer/go-colorful v1.2.0 // indirect
	github.com/lufia/plan9stats v0.0.0-20231016141302-07b5767bb0ed // indirect
	github.com/magiconair/properties v1.8.7 // indirect
	github.com/mailru/easyjson v0.7.7 // indirect
	github.com/mattn/go-colorable v0.1.13 // indirect
	github.com/mattn/go-isatty v0.0.20 // indirect
	github.com/mattn/go-runewidth v0.0.15 // indirect
	github.com/mattn/go-tty v0.0.3 // indirect
	github.com/mdlayher/socket v0.4.1 // indirect
	github.com/mgutz/ansi v0.0.0-20200706080929-d51e80ef957d // indirect
	github.com/miekg/pkcs11 v1.1.1 // indirect
	github.com/mitchellh/go-ps v1.0.0 // indirect
	github.com/muhlemmer/gu v0.3.1 // indirect
	github.com/oklog/ulid v1.3.1 // indirect
	github.com/opentracing/opentracing-go v1.2.0 // indirect
	github.com/openziti/dilithium v0.3.3 // indirect
	github.com/parallaxsecond/parsec-client-go v0.0.0-20221025095442-f0a77d263cf9 // indirect
	github.com/pelletier/go-toml/v2 v2.1.0 // indirect
	github.com/pkg/term v1.2.0-beta.2 // indirect
	github.com/pmezard/go-difflib v1.0.1-0.20181226105442-5d4384ee4fb2 // indirect
	github.com/power-devops/perfstat v0.0.0-20221212215047-62379fc7944b // indirect
	github.com/rivo/uniseg v0.4.4 // indirect
	github.com/rodaine/table v1.0.1 // indirect
	github.com/rs/cors v1.9.0 // indirect
	github.com/sagikazarmark/locafero v0.3.0 // indirect
	github.com/sagikazarmark/slog-shim v0.1.0 // indirect
	github.com/shoenig/go-m1cpu v0.1.6 // indirect
	github.com/sourcegraph/conc v0.3.0 // indirect
	github.com/speps/go-hashids v2.0.0+incompatible // indirect
	github.com/spf13/afero v1.10.0 // indirect
	github.com/spf13/cast v1.5.1 // indirect
	github.com/subosito/gotenv v1.6.0 // indirect
	github.com/tklauser/go-sysconf v0.3.12 // indirect
	github.com/tklauser/numcpus v0.6.1 // indirect
	github.com/valyala/bytebufferpool v1.0.0 // indirect
	github.com/valyala/fasttemplate v1.2.2 // indirect
	github.com/xeipuuv/gojsonpointer v0.0.0-20180127040702-4e3ac2762d5f // indirect
	github.com/xeipuuv/gojsonreference v0.0.0-20180127040603-bd5ef7bd5415 // indirect
	github.com/yusufpapurcu/wmi v1.2.3 // indirect
	go.mongodb.org/mongo-driver v1.12.1 // indirect
	go.mozilla.org/pkcs7 v0.0.0-20210826202110-33d05740a352 // indirect
	go.opentelemetry.io/otel v1.19.0 // indirect
	go.opentelemetry.io/otel/metric v1.19.0 // indirect
	go.opentelemetry.io/otel/trace v1.19.0 // indirect
	go.uber.org/atomic v1.9.0 // indirect
	go.uber.org/multierr v1.9.0 // indirect
	golang.org/x/exp v0.0.0-20231006140011-7918f672742d // indirect
	golang.org/x/image v0.13.0 // indirect
	golang.org/x/mod v0.13.0 // indirect
	golang.org/x/oauth2 v0.12.0 // indirect
	golang.org/x/term v0.13.0 // indirect
	golang.org/x/tools v0.14.0 // indirect
	google.golang.org/appengine v1.6.7 // indirect
	gopkg.in/ini.v1 v1.67.0 // indirect
	gopkg.in/natefinch/lumberjack.v2 v2.0.0 // indirect
	nhooyr.io/websocket v1.8.10 // indirect
)
